^C:\USERS\HP\SOURCE\REPOS\16.5\X64\DEBUG\16.5.OBJ
C:\PROGRAM FILES (X86)\WINDOWS KITS\10\LIB\10.0.19041.0\UM\X64\KERNEL32.LIB
C:\PROGRAM FILES (X86)\WINDOWS KITS\10\LIB\10.0.19041.0\UM\X64\USER32.LIB
C:\PROGRAM FILES (X86)\WINDOWS KITS\10\LIB\10.0.19041.0\UM\X64\GDI32.LIB
C:\PROGRAM FILES (X86)\WINDOWS KITS\10\LIB\10.0.19041.0\UM\X64\WINSPOOL.LIB
C:\PROGRAM FILES (X86)\WINDOWS KITS\10\LIB\10.0.19041.0\UM\X64\COMDLG32.LIB
C:\PROGRAM FILES (X86)\WINDOWS KITS\10\LIB\10.0.19041.0\UM\X64\ADVAPI32.LIB
C:\PROGRAM FILES (X86)\WINDOWS KITS\10\LIB\10.0.19041.0\UM\X64\SHELL32.LIB
C:\PROGRAM FILES (X86)\WINDOWS KITS\10\LIB\10.0.19041.0\UM\X64\OLE32.LIB
C:\PROGRAM FILES (X86)\WINDOWS KITS\10\LIB\10.0.19041.0\UM\X64\OLEAUT32.LIB
C:\PROGRAM FILES (X86)\WINDOWS KITS\10\LIB\10.0.19041.0\UM\X64\UUID.LIB
C:\PROGRAM FILES (X86)\WINDOWS KITS\10\LIB\10.0.19041.0\UM\X64\ODBC32.LIB
C:\PROGRAM FILES (X86)\WINDOWS KITS\10\LIB\10.0.19041.0\UM\X64\ODBCCP32.LIB
C:\USERS\HP\SOURCE\REPOS\16.5\X64\DEBUG\16.5.OBJ
C:\WINDOWS\SYSTEM32\TZRES.DLL
C:\WINDOWS\GLOBALIZATION\SORTING\SORTDEFAULT.NLS
C:\NOSISTEM\12\VC\TOOLS\MSVC\14.32.31326\LIB\X64\MSVCPRTD.LIB
C:\NOSISTEM\12\VC\TOOLS\MSVC\14.32.31326\LIB\X64\MSVCRTD.LIB
C:\NOSISTEM\12\VC\TOOLS\MSVC\14.32.31326\LIB\X64\OLDNAMES.LIB
C:\NOSISTEM\12\VC\TOOLS\MSVC\14.32.31326\LIB\X64\VCRUNTIMED.LIB
C:\PROGRAM FILES (X86)\WINDOWS KITS\10\LIB\10.0.19041.0\UCRT\X64\UCRTD.LIB
C:\USERS\HP\SOURCE\REPOS\16.5\X64\DEBUG\VC143.PDB
